AOC/Primeiro_projeto/simulation/qsim/mic1.msim.vcd
$comment
	File created using the following command:
		vcd file mic1.msim.vcd -direction
$end
$date
	Fri Jul 26 17:11:46 2024
$end
$version
	ModelSim Version 10.1d
$end
$timescale
	1ps
$end
$scope module REGISTER_4BIT_vlg_vec_tst $end
$var reg 1 ! CLOCK $end
$var reg 4 " INPUT [3:0] $end
$var reg 1 # LOADN $end
$var reg 4 $ P_L [3:0] $end
$var reg 1 % RESET $end
$var wire 1 & OUTPUT [3] $end
$var wire 1 ' OUTPUT [2] $end
$var wire 1 ( OUTPUT [1] $end
$var wire 1 ) OUTPUT [0] $end
$var wire 1 * sampler $end
$scope module i1 $end
$var wire 1 + gnd $end
$var wire 1 , vcc $end
$var wire 1 - unknown $end
$var tri1 1 . devclrn $end
$var tri1 1 / devpor $end
$var tri1 1 0 devoe $end
$var wire 1 1 CLOCK~combout $end
$var wire 1 2 CLOCK~clkctrl_outclk $end
$var wire 1 3 LOADN~combout $end
$var wire 1 4 1~combout $end
$var wire 1 5 inst~regout $end
$var wire 1 6 2~feeder_combout $end
$var wire 1 7 inst5~combout $end
$var wire 1 8 2~regout $end
$var wire 1 9 inst8~feeder_combout $end
$var wire 1 : inst7~combout $end
$var wire 1 ; inst8~regout $end
$var wire 1 < inst10~feeder_combout $end
$var wire 1 = inst11~combout $end
$var wire 1 > inst10~regout $end
$var wire 1 ? INPUT~combout [3] $end
$var wire 1 @ INPUT~combout [2] $end
$var wire 1 A INPUT~combout [1] $end
$var wire 1 B INPUT~combout [0] $end
$var wire 1 C P_L~combout [3] $end
$var wire 1 D P_L~combout [2] $end
$var wire 1 E P_L~combout [1] $end
$var wire 1 F P_L~combout [0] $end
$upscope $end
$upscope $end
$enddefinitions $end
#0
$dumpvars
0!
b0 "
1#
b0 $
0%
0)
0(
0'
0&
x*
0+
1,
x-
1.
1/
10
01
02
13
04
05
06
07
08
09
0:
0;
0<
0=
0>
0B
0A
0@
0?
0F
0E
0D
0C
$end
#100000
b1000 "
b1100 "
b1110 "
b1111 "
1B
1A
1@
1?
0*
1<
19
16
#125000
1!
11
12
1*
1>
1;
18
15
1)
1(
1'
1&
#200000
b111 "
b11 "
b1 "
b0 "
0B
0A
0@
0?
0*
0<
09
06
#250000
0!
01
02
1*
#270000
b1000 $
b1010 $
b1011 $
1F
1E
1C
0*
#320000
0#
03
1*
1=
1:
14
0>
0;
05
0)
0(
0&
#340000
1#
13
0*
0=
0:
04
#375000
1!
11
12
1*
08
0'
#500000
b1000 "
b1100 "
b1110 "
b1111 "
0!
1B
1A
1@
1?
01
02
0*
1<
19
16
#600000
b111 "
b11 "
b1 "
b0 "
0B
0A
0@
0?
1*
0<
09
06
#625000
1!
11
12
0*
#700000
b1000 "
b1100 "
b1110 "
b1111 "
1B
1A
1@
1?
1*
1<
19
16
#750000
0!
01
02
0*
#800000
b111 "
b11 "
b1 "
b0 "
0B
0A
0@
0?
1*
0<
09
06
#875000
1!
11
12
0*
#900000
b1000 "
b1100 "
b1110 "
b1111 "
1B
1A
1@
1?
1*
1<
19
16
