AOC/Primeiro_projeto/joao_AOC/simulation/qsim/mic1.msim.vcd
$comment
	File created using the following command:
		vcd file mic1.msim.vcd -direction
$end
$date
	Fri Apr 05 17:18:02 2024
$end
$version
	ModelSim Version 10.1d
$end
$timescale
	1ps
$end
$scope module ULA_1BIT_vlg_vec_tst $end
$var reg 1 ! A $end
$var reg 1 " B $end
$var reg 1 # CIN $end
$var reg 1 $ ENA $end
$var reg 1 % ENAB $end
$var reg 1 & F1 $end
$var reg 1 ' Fo $end
$var reg 1 ( INVA $end
$var wire 1 ) CO $end
$var wire 1 * S $end
$var wire 1 + sampler $end
$scope module i1 $end
$var wire 1 , gnd $end
$var wire 1 - vcc $end
$var wire 1 . unknown $end
$var tri1 1 / devclrn $end
$var tri1 1 0 devpor $end
$var tri1 1 1 devoe $end
$var wire 1 2 Fo~combout $end
$var wire 1 3 ENAB~combout $end
$var wire 1 4 B~combout $end
$var wire 1 5 inst1~combout $end
$var wire 1 6 F1~combout $end
$var wire 1 7 INVA~combout $end
$var wire 1 8 ENA~combout $end
$var wire 1 9 A~combout $end
$var wire 1 : inst2~combout $end
$var wire 1 ; inst11~2_combout $end
$var wire 1 < inst11~3_combout $end
$var wire 1 = inst11~4_combout $end
$var wire 1 > inst12|inst3~0_combout $end
$var wire 1 ? CIN~combout $end
$var wire 1 @ inst12|inst4~combout $end
$upscope $end
$upscope $end
$enddefinitions $end
#0
$dumpvars
0!
0"
0#
1$
1%
0&
0'
0(
x)
x*
x+
0,
1-
x.
1/
10
11
02
13
04
x5
06
07
18
09
x:
x;
x<
x=
x>
0?
x@
$end
#807
0>
#932
05
#1504
0@
#4909
0;
#4928
0)
#5153
0:
#5566
0<
#5579
0=
#9475
0*
#100000
1"
0+
#100979
14
#101911
15
#102053
1<
#140000
1(
1+
#140862
17
#145780
1:
#146193
0<
#146194
1;
#146864
1=
#150760
1*
#200000
1!
0"
0(
0+
#200852
19
#200862
07
#200979
04
#201911
05
#202053
1<
#202580
0;
#203250
0=
#205780
0:
#206005
1:
#207146
0*
#300000
0$
1"
1+
#300979
14
#300989
08
#301867
0:
#301911
15
#302053
0<
#302280
1<
#340000
1$
0+
#340989
18
#341867
1:
#342280
0<
#342281
1;
#342951
1=
#346847
1*
#400000
1'
0!
0"
1+
#400852
09
12
#400979
04
#401911
05
#402053
1<
#402580
0;
#403250
0=
#405761
1;
#406005
0:
#406418
0<
#406431
1=
#407146
0*
#410327
1*
#500000
1"
0+
#500979
14
#501911
15
#502053
1<
#502580
0;
#503250
0=
#507146
0*
#600000
1!
0"
1+
#600852
19
#600979
04
#601911
05
#602053
0<
#602580
1;
#603250
1=
#606005
1:
#606418
1<
#607146
1*
#700000
0%
1"
0+
#700979
14
#700989
03
#800000
1&
0'
0!
1%
0"
1+
#800852
09
02
#800979
04
#800989
13
16
#801796
1>
#801921
0;
#805736
0>
#805759
0=
#805761
1;
#806005
0:
#806418
0<
#806419
0;
#806431
1=
#807089
0=
#810985
0*
#900000
1"
0+
#900979
14
#901911
15
#902053
1<
#902580
1;
#903250
1=
#907146
1*
#1000000
1!
0"
1+
#1000852
19
#1000979
04
#1001911
05
#1002053
0<
#1002580
0;
#1003250
0=
#1006005
1:
#1006418
1<
#1006419
1;
#1007089
1=
#1007146
0*
#1010985
1*
#1100000
1"
0+
#1100979
14
#1101911
15
#1102053
0<
#1200000
1'
0!
0"
1+
#1200852
09
12
#1200979
04
#1201911
05
#1202053
1<
#1205736
1>
#1205761
0;
#1206005
0:
#1206418
0<
#1206812
0=
#1210708
0*
#1300000
1"
0+
#1300979
14
#1301911
15
#1302053
1<
#1302447
1=
#1306343
1*
#1400000
1!
0"
1+
#1400852
19
#1400979
04
#1401911
05
#1402053
0<
#1402447
0=
#1406005
1:
#1406343
0*
#1406418
1<
#1406812
1=
#1410708
1*
#1500000
1"
0+
#1500979
14
#1501911
15
#1502053
0<
#1502447
0=
#1502582
1@
#1506006
1)
#1506343
0*
#1560000
1#
1+
#1560852
1?
#1566093
1<
#1566487
1=
#1570383
1*
