AOC/Primeiro_projeto/joao_AOC/simulation/qsim/mic1.msim.vcd
$comment
	File created using the following command:
		vcd file mic1.msim.vcd -direction
$end
$date
	Fri Apr 12 17:21:48 2024
$end
$version
	ModelSim Version 10.1d
$end
$timescale
	1ps
$end
$scope module ULA_8BIT_vlg_vec_tst $end
$var reg 8 ! A [7:0] $end
$var reg 8 " B [7:0] $end
$var reg 1 # CIN $end
$var reg 1 $ ENA $end
$var reg 1 % ENB $end
$var reg 1 & F0 $end
$var reg 1 ' F1 $end
$var reg 1 ( INVA $end
$var wire 1 ) S [7] $end
$var wire 1 * S [6] $end
$var wire 1 + S [5] $end
$var wire 1 , S [4] $end
$var wire 1 - S [3] $end
$var wire 1 . S [2] $end
$var wire 1 / S [1] $end
$var wire 1 0 S [0] $end
$var wire 1 1 sampler $end
$scope module i1 $end
$var wire 1 2 gnd $end
$var wire 1 3 vcc $end
$var wire 1 4 unknown $end
$var tri1 1 5 devclrn $end
$var tri1 1 6 devpor $end
$var tri1 1 7 devoe $end
$var wire 1 8 inst5|inst1~combout $end
$var wire 1 9 F0~combout $end
$var wire 1 : F1~combout $end
$var wire 1 ; inst5|inst3|inst7~0_combout $end
$var wire 1 < ENB~combout $end
$var wire 1 = inst6|inst11~12_combout $end
$var wire 1 > ENA~combout $end
$var wire 1 ? inst5|inst2~combout $end
$var wire 1 @ inst6|inst11~11_combout $end
$var wire 1 A inst4|inst12|inst4~combout $end
$var wire 1 B inst3|inst12|inst3~4_combout $end
$var wire 1 C inst3|inst1~combout $end
$var wire 1 D inst6|inst11~8_combout $end
$var wire 1 E 2|inst12|inst5~4_combout $end
$var wire 1 F inst3|inst12|inst4~combout $end
$var wire 1 G inst6|inst11~9_combout $end
$var wire 1 H inst6|inst11~10_combout $end
$var wire 1 I inst5|inst11~0_combout $end
$var wire 1 J INVA~combout $end
$var wire 1 K 1|inst12|inst~combout $end
$var wire 1 L inst5|inst11~1_combout $end
$var wire 1 M 2|inst12|inst~combout $end
$var wire 1 N inst3|inst11~0_combout $end
$var wire 1 O inst3|inst11~1_combout $end
$var wire 1 P CIN~combout $end
$var wire 1 Q 1|inst12|inst4~combout $end
$var wire 1 R inst|inst12|inst5~combout $end
$var wire 1 S inst2|inst12|inst4~combout $end
$var wire 1 T inst4|inst11~0_combout $end
$var wire 1 U inst2|inst11~0_combout $end
$var wire 1 V inst2|inst11~1_combout $end
$var wire 1 W inst|inst11~2_combout $end
$var wire 1 X inst|inst11~3_combout $end
$var wire 1 Y 2|inst11~0_combout $end
$var wire 1 Z 1|inst11~0_combout $end
$var wire 1 [ B~combout [7] $end
$var wire 1 \ B~combout [6] $end
$var wire 1 ] B~combout [5] $end
$var wire 1 ^ B~combout [4] $end
$var wire 1 _ B~combout [3] $end
$var wire 1 ` B~combout [2] $end
$var wire 1 a B~combout [1] $end
$var wire 1 b B~combout [0] $end
$var wire 1 c A~combout [7] $end
$var wire 1 d A~combout [6] $end
$var wire 1 e A~combout [5] $end
$var wire 1 f A~combout [4] $end
$var wire 1 g A~combout [3] $end
$var wire 1 h A~combout [2] $end
$var wire 1 i A~combout [1] $end
$var wire 1 j A~combout [0] $end
$upscope $end
$upscope $end
$enddefinitions $end
#0
$dumpvars
b0 !
b11111111 "
0#
1$
0%
0&
1'
0(
x0
x/
x.
x-
x,
x+
x*
x)
x1
02
13
x4
15
16
17
x8
09
1:
x;
0<
x=
1>
x?
x@
xA
xB
xC
xD
xE
xF
xG
xH
xI
0J
xK
xL
xM
xN
xO
0P
xQ
xR
xS
xT
xU
xV
xW
xX
xY
xZ
1b
1a
z`
z_
z^
z]
z\
z[
0j
0i
zh
zg
zf
ze
zd
zc
$end
#4790
0C
#4904
0B
#4955
08
#4958
0=
#5589
0E
#5597
0D
#5601
0?
#5617
0;
#5620
0@
#5668
0Q
#5850
0K
#6018
0R
#6019
0S
#6020
0F
#6304
0I
#6510
0N
#6514
0G
#6657
0U
#6738
0A
#6815
0M
#7018
0Y
#7029
0W
#7040
0T
#7043
0L
#7044
0X
#7045
0Z
#7198
0H
#7311
0O
#7355
0V
#10350
0/
#10394
0*
#10407
0.
#10427
0,
#10810
00
#10986
0+
#11027
0-
#11095
0)
#250000
0$
1%
01
#250842
1<
#250852
0>
#255632
1C
#255634
1M
#255797
18
#256178
1N
#256179
1H
#256531
1I
#256535
1K
#256684
1V
#256685
1O
#256686
1Y
#257267
1T
#257270
1L
#257271
1X
#257272
1Z
#257714
1W
#260018
1/
#260076
1)
#260356
1-
#260360
1+
#260621
1*
#260634
1.
#260654
1,
#261037
10
#500000
1(
1$
0%
11
#500842
0<
#500850
1J
#500852
1>
#505632
0C
#505634
0M
#505797
08
#506178
0N
#506179
0H
#506447
1D
#506451
1?
#506531
0I
#506684
0V
#506685
0O
#506686
0Y
#507154
1I
#507267
0T
#507270
0L
#507271
0X
#507272
0Z
#507360
1N
#507364
1G
#507665
1M
#507866
1V
#507867
1O
#507868
1Y
#507890
1T
#507893
1L
#507894
1X
#507895
1Z
#508048
1H
#750000
1&
0'
0(
1%
01
#750842
1<
#750850
0J
#750872
0:
19
#755632
1C
#755634
0M
#755797
18
#756447
0D
#756451
0?
#756458
0H
#756461
0N
#756494
0I
#756967
0V
#756968
0O
#756969
0Y
#757230
0T
#757233
0L
#757234
0X
#757235
0Z
#757364
0G
#757665
1M
#760301
0/
#760355
0)
#760584
0*
#760597
0.
#760617
0,
#760639
0-
#760643
0+
#761000
00
