AOC/MIC-1/simulation/qsim/mic1.msim.vcd
$comment
	File created using the following command:
		vcd file mic1.msim.vcd -direction
$end
$date
	Fri Dec 13 16:02:59 2024
$end
$version
	ModelSim Version 10.1d
$end
$timescale
	1ps
$end
$scope module UNIDADE_CONTROLE_vlg_vec_tst $end
$var reg 1 ! CLOCK $end
$var reg 8 " MBR_IN [7:0] $end
$var reg 1 # N $end
$var reg 1 $ Z $end
$var wire 1 % MIR [35] $end
$var wire 1 & MIR [34] $end
$var wire 1 ' MIR [33] $end
$var wire 1 ( MIR [32] $end
$var wire 1 ) MIR [31] $end
$var wire 1 * MIR [30] $end
$var wire 1 + MIR [29] $end
$var wire 1 , MIR [28] $end
$var wire 1 - MIR [27] $end
$var wire 1 . MIR [26] $end
$var wire 1 / MIR [25] $end
$var wire 1 0 MIR [24] $end
$var wire 1 1 MIR [23] $end
$var wire 1 2 MIR [22] $end
$var wire 1 3 MIR [21] $end
$var wire 1 4 MIR [20] $end
$var wire 1 5 MIR [19] $end
$var wire 1 6 MIR [18] $end
$var wire 1 7 MIR [17] $end
$var wire 1 8 MIR [16] $end
$var wire 1 9 MIR [15] $end
$var wire 1 : MIR [14] $end
$var wire 1 ; MIR [13] $end
$var wire 1 < MIR [12] $end
$var wire 1 = MIR [11] $end
$var wire 1 > MIR [10] $end
$var wire 1 ? MIR [9] $end
$var wire 1 @ MIR [8] $end
$var wire 1 A MIR [7] $end
$var wire 1 B MIR [6] $end
$var wire 1 C MIR [5] $end
$var wire 1 D MIR [4] $end
$var wire 1 E MIR [3] $end
$var wire 1 F MIR [2] $end
$var wire 1 G MIR [1] $end
$var wire 1 H MIR [0] $end
$var wire 1 I MPC [8] $end
$var wire 1 J MPC [7] $end
$var wire 1 K MPC [6] $end
$var wire 1 L MPC [5] $end
$var wire 1 M MPC [4] $end
$var wire 1 N MPC [3] $end
$var wire 1 O MPC [2] $end
$var wire 1 P MPC [1] $end
$var wire 1 Q MPC [0] $end
$var wire 1 R write_enable $end
$var wire 1 S sampler $end
$scope module i1 $end
$var wire 1 T gnd $end
$var wire 1 U vcc $end
$var wire 1 V unknown $end
$var tri1 1 W devclrn $end
$var tri1 1 X devpor $end
$var tri1 1 Y devoe $end
$var wire 1 Z CLOCK~combout $end
$var wire 1 [ CLOCK~clkctrl_outclk $end
$var wire 1 \ Z~combout $end
$var wire 1 ] inst2|inst1~regout $end
$var wire 1 ^ N~combout $end
$var wire 1 _ inst2|inst~feeder_combout $end
$var wire 1 ` inst2|inst~regout $end
$var wire 1 a inst2|inst5~0_combout $end
$var wire 1 b inst2|inst5~combout $end
$var wire 1 c inst4~feeder_combout $end
$var wire 1 d inst4~regout $end
$var wire 1 e inst3|altsyncram_component|auto_generated|q_a [35] $end
$var wire 1 f inst3|altsyncram_component|auto_generated|q_a [34] $end
$var wire 1 g inst3|altsyncram_component|auto_generated|q_a [33] $end
$var wire 1 h inst3|altsyncram_component|auto_generated|q_a [32] $end
$var wire 1 i inst3|altsyncram_component|auto_generated|q_a [31] $end
$var wire 1 j inst3|altsyncram_component|auto_generated|q_a [30] $end
$var wire 1 k inst3|altsyncram_component|auto_generated|q_a [29] $end
$var wire 1 l inst3|altsyncram_component|auto_generated|q_a [28] $end
$var wire 1 m inst3|altsyncram_component|auto_generated|q_a [27] $end
$var wire 1 n inst3|altsyncram_component|auto_generated|q_a [26] $end
$var wire 1 o inst3|altsyncram_component|auto_generated|q_a [25] $end
$var wire 1 p inst3|altsyncram_component|auto_generated|q_a [24] $end
$var wire 1 q inst3|altsyncram_component|auto_generated|q_a [23] $end
$var wire 1 r inst3|altsyncram_component|auto_generated|q_a [22] $end
$var wire 1 s inst3|altsyncram_component|auto_generated|q_a [21] $end
$var wire 1 t inst3|altsyncram_component|auto_generated|q_a [20] $end
$var wire 1 u inst3|altsyncram_component|auto_generated|q_a [19] $end
$var wire 1 v inst3|altsyncram_component|auto_generated|q_a [18] $end
$var wire 1 w inst3|altsyncram_component|auto_generated|q_a [17] $end
$var wire 1 x inst3|altsyncram_component|auto_generated|q_a [16] $end
$var wire 1 y inst3|altsyncram_component|auto_generated|q_a [15] $end
$var wire 1 z inst3|altsyncram_component|auto_generated|q_a [14] $end
$var wire 1 { inst3|altsyncram_component|auto_generated|q_a [13] $end
$var wire 1 | inst3|altsyncram_component|auto_generated|q_a [12] $end
$var wire 1 } inst3|altsyncram_component|auto_generated|q_a [11] $end
$var wire 1 ~ inst3|altsyncram_component|auto_generated|q_a [10] $end
$var wire 1 !! inst3|altsyncram_component|auto_generated|q_a [9] $end
$var wire 1 "! inst3|altsyncram_component|auto_generated|q_a [8] $end
$var wire 1 #! inst3|altsyncram_component|auto_generated|q_a [7] $end
$var wire 1 $! inst3|altsyncram_component|auto_generated|q_a [6] $end
$var wire 1 %! inst3|altsyncram_component|auto_generated|q_a [5] $end
$var wire 1 &! inst3|altsyncram_component|auto_generated|q_a [4] $end
$var wire 1 '! inst3|altsyncram_component|auto_generated|q_a [3] $end
$var wire 1 (! inst3|altsyncram_component|auto_generated|q_a [2] $end
$var wire 1 )! inst3|altsyncram_component|auto_generated|q_a [1] $end
$var wire 1 *! inst3|altsyncram_component|auto_generated|q_a [0] $end
$var wire 1 +! inst2|inst7 [7] $end
$var wire 1 ,! inst2|inst7 [6] $end
$var wire 1 -! inst2|inst7 [5] $end
$var wire 1 .! inst2|inst7 [4] $end
$var wire 1 /! inst2|inst7 [3] $end
$var wire 1 0! inst2|inst7 [2] $end
$var wire 1 1! inst2|inst7 [1] $end
$var wire 1 2! inst2|inst7 [0] $end
$var wire 1 3! inst2|inst2 [7] $end
$var wire 1 4! inst2|inst2 [6] $end
$var wire 1 5! inst2|inst2 [5] $end
$var wire 1 6! inst2|inst2 [4] $end
$var wire 1 7! inst2|inst2 [3] $end
$var wire 1 8! inst2|inst2 [2] $end
$var wire 1 9! inst2|inst2 [1] $end
$var wire 1 :! inst2|inst2 [0] $end
$var wire 1 ;! MBR_IN~combout [7] $end
$var wire 1 <! MBR_IN~combout [6] $end
$var wire 1 =! MBR_IN~combout [5] $end
$var wire 1 >! MBR_IN~combout [4] $end
$var wire 1 ?! MBR_IN~combout [3] $end
$var wire 1 @! MBR_IN~combout [2] $end
$var wire 1 A! MBR_IN~combout [1] $end
$var wire 1 B! MBR_IN~combout [0] $end
$var wire 1 C! inst3|altsyncram_component|auto_generated|ram_block1a27_PORTADATAOUT_bus [8] $end
$var wire 1 D! inst3|altsyncram_component|auto_generated|ram_block1a27_PORTADATAOUT_bus [7] $end
$var wire 1 E! inst3|altsyncram_component|auto_generated|ram_block1a27_PORTADATAOUT_bus [6] $end
$var wire 1 F! inst3|altsyncram_component|auto_generated|ram_block1a27_PORTADATAOUT_bus [5] $end
$var wire 1 G! inst3|altsyncram_component|auto_generated|ram_block1a27_PORTADATAOUT_bus [4] $end
$var wire 1 H! inst3|altsyncram_component|auto_generated|ram_block1a27_PORTADATAOUT_bus [3] $end
$var wire 1 I! inst3|altsyncram_component|auto_generated|ram_block1a27_PORTADATAOUT_bus [2] $end
$var wire 1 J! inst3|altsyncram_component|auto_generated|ram_block1a27_PORTADATAOUT_bus [1] $end
$var wire 1 K! inst3|altsyncram_component|auto_generated|ram_block1a27_PORTADATAOUT_bus [0] $end
$var wire 1 L! inst3|altsyncram_component|auto_generated|ram_block1a18_PORTADATAOUT_bus [8] $end
$var wire 1 M! inst3|altsyncram_component|auto_generated|ram_block1a18_PORTADATAOUT_bus [7] $end
$var wire 1 N! inst3|altsyncram_component|auto_generated|ram_block1a18_PORTADATAOUT_bus [6] $end
$var wire 1 O! inst3|altsyncram_component|auto_generated|ram_block1a18_PORTADATAOUT_bus [5] $end
$var wire 1 P! inst3|altsyncram_component|auto_generated|ram_block1a18_PORTADATAOUT_bus [4] $end
$var wire 1 Q! inst3|altsyncram_component|auto_generated|ram_block1a18_PORTADATAOUT_bus [3] $end
$var wire 1 R! inst3|altsyncram_component|auto_generated|ram_block1a18_PORTADATAOUT_bus [2] $end
$var wire 1 S! inst3|altsyncram_component|auto_generated|ram_block1a18_PORTADATAOUT_bus [1] $end
$var wire 1 T! inst3|altsyncram_component|auto_generated|ram_block1a18_PORTADATAOUT_bus [0] $end
$var wire 1 U! inst3|altsyncram_component|auto_generated|ram_block1a9_PORTADATAOUT_bus [8] $end
$var wire 1 V! inst3|altsyncram_component|auto_generated|ram_block1a9_PORTADATAOUT_bus [7] $end
$var wire 1 W! inst3|altsyncram_component|auto_generated|ram_block1a9_PORTADATAOUT_bus [6] $end
$var wire 1 X! inst3|altsyncram_component|auto_generated|ram_block1a9_PORTADATAOUT_bus [5] $end
$var wire 1 Y! inst3|altsyncram_component|auto_generated|ram_block1a9_PORTADATAOUT_bus [4] $end
$var wire 1 Z! inst3|altsyncram_component|auto_generated|ram_block1a9_PORTADATAOUT_bus [3] $end
$var wire 1 [! inst3|altsyncram_component|auto_generated|ram_block1a9_PORTADATAOUT_bus [2] $end
$var wire 1 \! inst3|altsyncram_component|auto_generated|ram_block1a9_PORTADATAOUT_bus [1] $end
$var wire 1 ]! inst3|altsyncram_component|auto_generated|ram_block1a9_PORTADATAOUT_bus [0] $end
$var wire 1 ^! inst3|altsyncram_component|auto_generated|ram_block1a0_PORTADATAOUT_bus [8] $end
$var wire 1 _! inst3|altsyncram_component|auto_generated|ram_block1a0_PORTADATAOUT_bus [7] $end
$var wire 1 `! inst3|altsyncram_component|auto_generated|ram_block1a0_PORTADATAOUT_bus [6] $end
$var wire 1 a! inst3|altsyncram_component|auto_generated|ram_block1a0_PORTADATAOUT_bus [5] $end
$var wire 1 b! inst3|altsyncram_component|auto_generated|ram_block1a0_PORTADATAOUT_bus [4] $end
$var wire 1 c! inst3|altsyncram_component|auto_generated|ram_block1a0_PORTADATAOUT_bus [3] $end
$var wire 1 d! inst3|altsyncram_component|auto_generated|ram_block1a0_PORTADATAOUT_bus [2] $end
$var wire 1 e! inst3|altsyncram_component|auto_generated|ram_block1a0_PORTADATAOUT_bus [1] $end
$var wire 1 f! inst3|altsyncram_component|auto_generated|ram_block1a0_PORTADATAOUT_bus [0] $end
$upscope $end
$upscope $end
$enddefinitions $end
#0
$dumpvars
0!
b110110 "
0#
0$
0H
0G
0F
0E
0D
0C
0B
0A
0@
0?
0>
0=
0<
0;
0:
09
08
07
06
05
04
03
02
01
00
0/
0.
0-
0,
0+
0*
0)
0(
0'
0&
0%
0Q
0P
0O
0N
0M
0L
0K
0J
0I
0R
xS
0T
1U
xV
1W
1X
1Y
0Z
0[
0\
0]
0^
0_
0`
0a
0b
0c
0d
0*!
0)!
0(!
0'!
0&!
0%!
0$!
0#!
0"!
0!!
0~
0}
0|
0{
0z
0y
0x
0w
0v
0u
0t
0s
0r
0q
0p
0o
0n
0m
0l
0k
0j
0i
0h
0g
0f
0e
02!
01!
00!
0/!
0.!
0-!
0,!
0+!
0:!
09!
08!
07!
06!
05!
04!
03!
0B!
1A!
1@!
0?!
1>!
1=!
0<!
0;!
0K!
0J!
0I!
0H!
0G!
0F!
0E!
0D!
0C!
0T!
0S!
0R!
0Q!
0P!
0O!
0N!
0M!
0L!
0]!
0\!
0[!
0Z!
0Y!
0X!
0W!
0V!
0U!
0f!
0e!
0d!
0c!
0b!
0a!
0`!
0_!
0^!
$end
#50000
1!
1Z
1[
0S
19!
18!
15!
16!
#100000
0!
0Z
0[
1S
#150000
1!
1Z
1[
0S
#200000
0!
0Z
0[
1S
1J!
1l
11!
1,
1P
#250000
1!
1Z
1[
0S
#300000
0!
0Z
0[
1S
#350000
1!
1Z
1[
0S
#400000
0!
0Z
0[
1S
0J!
1T!
1R!
1Q!
1L!
1f!
1b!
1]!
1V!
0l
1v
1t
1s
1n
1*!
1&!
1!!
1x
10!
1.!
1-!
0,
16
14
13
1.
1H
1D
1?
18
1O
1M
1L
#450000
1!
1Z
1[
0S
#500000
0!
0Z
0[
1S
#550000
1!
1Z
1[
0S
#600000
0!
0Z
0[
1S
1K!
1J!
1I!
1G!
1F!
0Q!
0L!
1d!
0b!
0]!
1W!
0V!
1m
1l
1k
1i
1h
0s
0n
1(!
0&!
0!!
1y
0x
12!
1-
1,
1+
1)
1(
03
0.
1F
0D
0?
19
08
1Q
#650000
1!
1Z
1[
0S
#700000
0!
0Z
0[
1S
#750000
1!
1Z
1[
0S
#800000
0!
0Z
0[
1S
0K!
0J!
0I!
1H!
1S!
1Q!
1e!
0d!
1_!
0W!
0m
0l
0k
1j
1u
1s
1)!
0(!
1#!
0y
02!
01!
00!
1/!
0-
0,
0+
1*
15
13
1G
0F
1A
09
0Q
0P
0O
1N
#850000
1!
1Z
1[
0S
#900000
0!
0Z
0[
1S
#950000
1!
1Z
1[
0S
#1000000
0!
0Z
0[
1S
1K!
0S!
0Q!
1d!
1`!
0_!
1^!
1m
0u
0s
1(!
1$!
0#!
1"!
12!
1c
1-
05
03
1F
1B
0A
1@
1Q
#1050000
1!
1Z
1[
0S
1d
1R
#1100000
0!
0Z
0[
1S
#1150000
1!
1Z
1[
0S
#1200000
0!
0Z
0[
1S
0K!
1J!
1Q!
0f!
0e!
1a!
0`!
1_!
0^!
1\!
1U!
0m
1l
1s
0*!
0)!
1%!
0$!
1#!
0"!
1~
1w
02!
11!
0c
0-
1,
13
0H
0G
1C
0B
1A
0@
1>
17
0Q
1P
#1250000
1!
1Z
1[
0S
0d
0R
#1300000
0!
0Z
0[
1S
#1320000
b10110 "
b110 "
b10 "
b0 "
0A!
0@!
0>!
0=!
0S
#1350000
1!
1Z
1[
1S
09!
08!
05!
06!
#1400000
0!
0Z
0[
0S
1K!
1f!
0d!
1b!
0a!
0_!
1]!
0\!
1V!
0U!
1m
1*!
0(!
1&!
0%!
0#!
1!!
0~
1x
0w
12!
1-
1H
0F
1D
0C
0A
1?
0>
18
07
1Q
#1450000
1!
1Z
1[
1S
#1500000
0!
0Z
0[
0S
#1550000
1!
1Z
1[
1S
#1600000
0!
0Z
0[
0S
0K!
0H!
0G!
0F!
0Q!
0f!
0b!
0]!
1Y!
0V!
0m
0j
0i
0h
0s
0*!
0&!
0!!
1{
0x
02!
0/!
0.!
0-!
0-
0*
0)
0(
03
0H
0D
0?
1;
08
0Q
0N
0M
0L
#1650000
1!
1Z
1[
1S
#1700000
0!
0Z
0[
0S
#1750000
1!
1Z
1[
1S
